<svg width="80" height="80" viewBox="0 0 80 80" fill="none" xmlns="http://www.w3.org/2000/svg">
<path d="M69.3728 63.5046H10.5493V69.3905H6.62769V73.3144H73.2944V69.3905H69.3728V63.5046Z" fill="#18328D"/>
<path d="M39.961 6.64713L6.62769 16.9311V28.1892H73.2944V16.9311L39.961 6.64713Z" fill="#18328D"/>
<path d="M14.4695 32.1131H22.3126V59.5806H14.4695V32.1131Z" fill="#18328D"/>
<path d="M36.0408 32.1131H43.8839V59.5806H36.0408V32.1131Z" fill="#18328D"/>
<path d="M57.6067 32.1131H65.4498V59.5806H57.6067V32.1131Z" fill="#18328D"/>
</svg>
